{
    "categories": {
	"resetqueue": {
	    "name": "ResetQueue mod",
	    "desc": "ResetQueue mod related hotkeys."
	}
    },
    "mapped_hotkeys": {
	"resetqueue": {
	    "resetqueue.all": {
		"name": "Reset production queue",
		"desc": "Reset production queue of selected entities."
	    },
            "resetqueue.trail": {
		"name": "Reset production queue after the current item",
		"desc": "Reset production queue after the current item of selected entities."
	    }
        }
    }
}
